{
  "total": 50,
  "per_page": "1",
  "current_page": 1,
  "last_page": 5,
  "next_page_url": "http://courses.tgn.localhost.com/api/courses?page=2",
  "prev_page_url": null,
  "from": 1,
  "to": 1,
  "data": [
    {
      "id": 18,
      "name": "Optio similique earum est et consectetur.",
      "owner_id": 1,
      "subject_id": 3,
      "grade_id": 1,
      "deleted_at": null,
      "created_at": "2016-06-19 21:23:16",
      "updated_at": "2016-06-19 21:23:33",
      "student_count": "32"
    }
  ]
}
